{
  "content": [
    {
      "id": 1,
      "username": "uocvv",
      "dateOfBirth": "01-02-1996",
      "address": "Yên Mỹ- Hưng Yên ",
      "fullName": "Vũ Văn Ước",
      "role": "MENTOR",
      "phoneNumber": "0377106297",
      "email": "vanuoc9xhy@gmail.com",
      "information": "infor",
      "facebook": "facebook"
    },
    {
      "id": 2,
      "username": "abc1",
      "dateOfBirth": "01-02-1996",
      "address": "Hà Nội ",
      "fullName": "Nguyễn Văn A",
      "role": "MENTOR",
      "phoneNumber": "0377106297",
      "email": "abc@gmail.com",
      "information": "infor",
      "facebook": "facebook",
      "classId": 2
    },
    {
      "id": 3,
      "username": "abc3",
      "dateOfBirth": "01-02-1996",
      "address": "Hà Nội ",
      "fullName": "Nguyễn Văn A",
      "role": "STUDENT",
      "phoneNumber": "0377106297",
      "email": "abc@gmail.com",
      "information": "infor",
      "facebook": "facebook",
      "classId": 3
    },
    {
      "id": 4,
      "username": "abc4",
      "dateOfBirth": "01-02-1996",
      "address": "Hà Nội ",
      "fullName": "Nguyễn Văn A",
      "role": "STUDENT",
      "phoneNumber": "0377106297",
      "email": "abc@gmail.com",
      "information": "infor",
      "facebook": "facebook",
      "classId": 2
    },
    {
      "id": 5,
      "username": "abc5",
      "dateOfBirth": "01-02-1996",
      "address": "Hà Nội ",
      "fullName": "Nguyễn Văn A",
      "role": "TUTOR",
      "phoneNumber": "0377106297",
      "email": "abc@gmail.com",
      "information": "infor",
      "facebook": "facebook",
      "classId": 4
    }
  ],
  "pageable": {
      "sort": {
          "sorted": true,
          "unsorted": false,
          "empty": false
      },
      "pageNumber": 0,
      "pageSize": 6,
      "offset": 0,
      "paged": true,
      "unpaged": false
  },
  "totalPages": 2,
  "totalElements": 15,
  "last": false,
  "numberOfElements": 6,
  "sort": {
      "sorted": true,
      "unsorted": false,
      "empty": false
  },
  "number": 0,
  "first": true,
  "size": 6,
  "empty": false
}