{
  "content": [
    {
      "id":1,
      "className": "Railway 59",
      "startDate": "2020-11-10",
      "endDate": "2023-11-10",
      "classStatus": "IN_PROGRESS",
      "studentNumber": "22",
      "teachingForm": "OFFLINE",
      "mentorName": "Ước",
      "mentorId": 1,
      "classRoomId": 1,
      "zoomId": 1,
      "description": "Lớp Java"
    },
    {
      "id":2,
      "className": "Railway 60",
      "startDate": "2022-11-10",
      "endDate": "2023-11-10",
      "classStatus": "PENDING",
      "studentNumber": "22",
      "teachingForm": "ONLINE",
      "mentorName": "Ước",
      "mentorId": 1,
      "classRoomId": 2,
      "zoomId": 2,
      "description": "Lơp React"
    },  {
      "id":3,
      "className": "Railway 61",
      "startDate": "2023-11-22",
      "endDate": "2023-11-10",
      "classStatus": "IN_PROGRESS",
      "studentNumber": "22",
      "teachingForm": "OFFLINE",
      "mentorName": "Ước",
      "mentorId": 1,
      "classRoomId": 3,
      "zoomId": 3,
      "description": "Lớp Python"
    },  {
      "id":4,
      "className": "Railway 62",
      "startDate": "2023-11-10",
      "endDate": "2023-11-10",
      "classStatus": "PENDING",
      "studentNumber": "22",
      "teachingForm": "ONLINE",
      "mentorName": "Ước",
      "mentorId": 2,
      "classRoomId": 4,
      "zoomId": 4,
      "description": "Lớp AWS"
    },  {
      "id":5,
      "className": "Railway 63",
      "startDate": "2023-03-20",
      "endDate": "2023-05-10",
      "classStatus": "CLOSED",
      "studentNumber": "22",
      "teachingForm": "ALL",
      "mentorName": "Ước",
      "mentorId": 2,
      "classRoomId": 5,
      "zoomId": 5,
      "description": "Lớp HTML CSS"
    }
  ],
  "pageable": {
      "sort": {
          "sorted": true,
          "unsorted": false,
          "empty": false
      },
      "pageNumber": 0,
      "pageSize": 6,
      "offset": 0,
      "paged": true,
      "unpaged": false
  },
  "totalPages": 5,
  "totalElements": 15,
  "last": false,
  "numberOfElements": 6,
  "sort": {
      "sorted": true,
      "unsorted": false,
      "empty": false
  },
  "number": 0,
  "first": true,
  "size": 6,
  "empty": false
}